{
	"uuid": "seasonal-clock@quickdudley.github.io",
	"name": "Seasonal Clock",
	"description": "Displays the emoji for the current hour as seen on https://seasonalclock.org",
	"icon": "seasonal-clock"
}
